{
    "francois": {
        "user_token": "",
        "api_token": ""
    },
    "elween": {
        "user_token": "",
        "api_token": ""
    },
    "anne-lucie": {
        "user_token": "",
        "api_token": ""
    }
}