{
    "global_availability_date": "2021-06-15",
    "doctolib_booking_url": "https://www.doctolib.fr/booking",
    "doctolib_availabilities_url": "https://www.doctolib.fr/availabilities.json",
    "pushover_api_url": "https://api.pushover.net/1/messages.json"
}